<?xml version="1.0" standalone="no"?>
<!DOCTYPE svg PUBLIC "-//W3C//DTD SVG 20010904//EN"
 "http://www.w3.org/TR/2001/REC-SVG-20010904/DTD/svg10.dtd">
<svg version="1.0" xmlns="http://www.w3.org/2000/svg"
 width="432.000000pt" height="397.000000pt" viewBox="0 0 432.000000 397.000000"
 preserveAspectRatio="xMidYMid meet">

<g transform="translate(0.000000,397.000000) scale(0.100000,-0.100000)"
fill="#000000" stroke="none">
<path d="M850 3785 l0 -175 -364 0 c-360 0 -363 0 -396 -22 -18 -13 -43 -36
-54 -51 l-21 -28 -3 -1467 c-1 -1034 1 -1475 9 -1493 5 -15 26 -41 45 -60 l34
-33 192 -7 c106 -4 613 -8 1127 -8 l934 -1 89 -90 c181 -183 377 -289 608
-326 556 -91 1089 257 1230 802 78 305 23 622 -156 891 -131 197 -311 334
-554 423 l-75 28 -5 669 c-6 743 -1 692 -73 747 l-34 26 -416 0 -417 0 0 175
0 175 -165 0 -165 0 -2 -172 -3 -173 -512 -3 -513 -2 0 175 0 175 -170 0 -170
0 0 -175z m2260 -1304 l0 -289 -65 -11 c-407 -71 -744 -376 -861 -780 -40
-139 -48 -357 -19 -528 l8 -43 -892 0 -891 0 0 970 0 970 1360 0 1360 0 0
-289z m133 -278 c-7 -2 -21 -2 -30 0 -10 3 -4 5 12 5 17 0 24 -2 18 -5z m187
-368 c253 -77 441 -262 520 -510 30 -95 38 -281 16 -383 -62 -291 -306 -532
-599 -588 -164 -32 -375 4 -513 88 -138 83 -232 186 -299 323 -58 120 -75 196
-75 331 0 142 19 228 74 339 102 205 281 351 501 407 88 22 290 19 375 -7z"/>
<path d="M1795 2666 l-60 -23 2 -60 c2 -54 0 -62 -27 -88 -28 -27 -31 -27 -74
-15 -25 7 -52 10 -61 7 -15 -6 -65 -108 -65 -133 0 -7 19 -26 43 -42 40 -28
42 -32 39 -73 -4 -40 -8 -47 -48 -71 -24 -15 -44 -33 -44 -40 0 -8 10 -41 23
-73 l24 -60 59 3 c55 2 62 0 88 -27 26 -27 27 -33 17 -62 -22 -63 -16 -76 49
-109 33 -16 66 -30 74 -30 8 0 27 21 43 46 25 40 31 45 57 40 16 -3 36 -6 46
-6 10 0 23 -13 30 -29 6 -16 20 -37 31 -47 17 -16 22 -15 78 6 79 29 85 37 73
97 -10 46 -10 48 21 75 20 18 39 26 52 23 11 -3 37 -8 58 -11 l37 -7 30 66
c17 37 30 71 30 76 0 5 -20 22 -45 38 -42 26 -45 31 -45 71 0 38 4 45 31 60
17 9 40 24 52 33 l20 16 -28 72 -27 72 -62 -5 c-59 -6 -62 -5 -84 24 -22 28
-23 34 -12 80 6 27 9 53 6 58 -3 5 -36 22 -72 38 l-67 28 -16 -21 c-9 -11 -25
-32 -36 -47 -18 -24 -24 -26 -63 -19 -36 7 -46 14 -65 48 -12 22 -29 41 -37
42 -8 1 -42 -8 -75 -21z m75 -78 c11 -18 21 -37 23 -42 2 -5 38 -10 80 -12
l77 -3 26 39 c15 22 28 40 30 40 13 0 54 -25 54 -33 0 -5 -5 -27 -11 -48 -12
-37 -11 -39 37 -93 51 -58 62 -61 135 -40 12 3 20 -5 27 -25 10 -29 9 -32 -31
-59 l-42 -28 -2 -74 -3 -75 40 -27 c37 -26 39 -30 28 -53 -12 -27 -29 -31 -76
-14 -30 10 -35 8 -87 -38 l-55 -48 6 -52 c5 -50 4 -53 -21 -65 -22 -10 -28
-10 -36 2 -45 77 -39 73 -121 76 l-76 3 -26 -39 c-30 -45 -27 -44 -61 -28 -18
8 -24 17 -19 27 3 9 8 32 11 52 5 32 0 41 -45 88 l-51 53 -46 -10 c-44 -9 -47
-9 -56 15 -13 35 -13 36 30 60 38 22 38 23 44 95 5 68 4 74 -19 95 -13 12 -32
26 -41 32 -15 8 -15 13 -5 36 11 24 16 26 48 20 19 -3 41 -8 48 -11 7 -3 39
19 70 49 42 39 57 60 53 73 -18 67 -18 74 5 84 35 13 37 13 58 -22z"/>
<path d="M1897 2476 c-68 -18 -126 -64 -161 -127 -27 -46 -31 -64 -31 -124 0
-58 5 -79 29 -123 67 -120 219 -171 339 -113 57 28 119 96 135 149 17 55 15
143 -3 186 -49 116 -187 185 -308 152z m172 -84 c123 -75 122 -259 -2 -336
-195 -121 -404 134 -250 305 65 72 166 84 252 31z"/>
<path d="M1114 2009 c-4 -7 -12 -37 -18 -67 -11 -54 -13 -56 -59 -75 l-48 -20
-45 32 c-24 17 -52 31 -62 31 -22 0 -122 -100 -122 -123 0 -9 14 -36 31 -60
l31 -44 -18 -51 c-18 -50 -19 -51 -69 -58 -83 -11 -85 -13 -85 -110 0 -95 0
-95 90 -108 44 -6 46 -8 64 -57 l18 -51 -31 -43 c-17 -24 -31 -52 -31 -62 0
-22 99 -123 121 -123 8 0 34 14 58 31 l42 32 54 -18 54 -19 6 -50 c12 -86 14
-87 113 -84 l86 3 8 30 c4 17 10 46 13 65 5 30 12 38 55 57 l49 21 45 -34 c25
-19 53 -34 63 -34 24 0 123 100 123 123 0 10 -15 38 -34 63 l-34 45 21 49 c19
43 27 50 57 55 19 3 49 9 65 13 l30 8 3 86 c3 99 2 101 -84 113 l-50 6 -19 54
-18 54 32 42 c17 24 31 50 31 59 0 22 -101 120 -124 120 -10 0 -37 -14 -61
-31 l-43 -31 -51 18 c-49 18 -51 20 -57 64 -13 90 -13 90 -108 90 -52 0 -87
-4 -92 -11z m141 -104 c8 -61 7 -60 85 -93 85 -36 86 -36 135 -1 l46 33 30
-31 31 -30 -32 -44 c-35 -48 -35 -54 3 -143 28 -67 33 -71 100 -80 l47 -7 0
-44 0 -44 -55 -6 c-30 -4 -59 -12 -64 -19 -11 -13 -61 -139 -61 -152 0 -6 14
-29 31 -53 l32 -43 -31 -30 -30 -31 -45 33 c-49 35 -50 35 -137 -2 -78 -33
-77 -32 -85 -93 l-6 -55 -44 0 -44 0 -7 48 c-9 66 -13 71 -80 99 -89 38 -95
38 -143 3 l-44 -32 -30 31 -31 30 33 46 c35 49 35 50 -1 135 -33 78 -32 77
-93 85 l-55 6 0 44 0 44 48 7 c62 9 78 18 86 51 4 14 16 45 27 67 24 51 25 49
-12 103 l-31 45 30 30 30 30 45 -31 c47 -32 71 -38 82 -21 3 5 31 17 61 27 62
19 68 27 78 96 l7 47 44 0 44 0 6 -55z"/>
<path d="M1105 1753 c-257 -92 -275 -443 -29 -564 69 -33 189 -33 254 0 61 31
116 86 148 146 36 68 38 187 4 255 -28 59 -93 124 -149 151 -62 30 -163 35
-228 12z m200 -67 c108 -50 162 -162 135 -275 -16 -66 -58 -123 -117 -158 -63
-37 -165 -39 -228 -6 -82 43 -135 129 -135 218 0 176 187 295 345 221z"/>
<path d="M3110 1227 l0 -384 218 -6 c119 -4 250 -7 290 -7 l72 0 0 110 0 110
-192 2 -193 3 -3 278 -2 277 -95 0 -95 0 0 -383z"/>
</g>
</svg>
